{
  "key": "atlassian-connect-spring-boot-sample-gradle",
  "baseUrl": "${addon.base-url}",
  "name": "Atlassian Connect Spring Boot Sample Gradle (Spring Boot)",
  "authentication": {
    "type": "jwt"
  },
  "lifecycle": {
    "installed": "/installed",
    "uninstalled": "/uninstalled"
  }
}
